2 Muestreo | Estadística básica con R
…
Muestreo estratificado

Se puede mejorar notablemente la representatividad de la muestra estratificando el muestreo.

Si la afijación del tamaño muestral en cada estrato es proporcioinal a su tamaño, obtendremos una muestra equiprobabilistica.

##### Muestreo de una base de datos #####
require(tidyverse)
require(readxl) #para leer fichero de excel en R
## Precios de la  gasolina 98 en España
gasolineras = read_excel("data/gasolineras.xls",skip=3) #Fuente: https://geoportalgasolineras.es
gasolineras

## # A tibble: 6,495 x 10
##    Provincia Localidad Dirección Margen `Toma de datos` Precio Rótulo
##    <chr>     <chr>     <chr>     <chr>  <chr>            <dbl> <chr> 
##  1 SANTA CR~ GRANADIL~ CARRETER~ D      09/01/2019 11:~  0.928 PCAN  
##  2 SANTA CR~ CUESTA, ~ AVENIDA ~ D      09/01/2019 09:~  0.934 PCAN  
##  3 SANTA CR~ LA LAGUNA PLAZA SA~ N      09/01/2019 06:~  0.935 TGAS  
##  4 SANTA CR~ LA LAGUNA GLORIETA~ N      09/01/2019 13:~  0.935 DISA ~
##  5 SANTA CR~ BALDIOS,~ CARRETER~ D      09/01/2019 00:~  0.935 TGAS ~
##  6 SANTA CR~ SAN CRIS~ AVENIDA ~ N      09/01/2019 13:~  0.935 SHELL~
##  7 SANTA CR~ SANTA CR~ CALLE SU~ D      09/01/2019 10:~  0.935 CANAR~
##  8 SANTA CR~ GUANCHA ~ CARRETER~ D      08/01/2019 06:~  0.937 TGAS ~
##  9 SANTA CR~ GUANCHA ~ AVENIDA ~ N      09/01/2019 11:~  0.937 PCAN  
## 10 SANTA CR~ REALEJOS~ CARRETER~ N      10/01/2019 12:~  0.937 PCAN ~
## # ... with 6,485 more rows, and 3 more variables: `Tipo venta` <chr>,
## #   Rem. <chr>, Horario <chr>
…
##    Min. 1st Qu.  Median    Mean 3rd Qu.    Max. 
##   0.928   1.313   1.339   1.327   1.365   1.549

n=250 # tamaño muestral
muestra <- gasolineras %>% sample_n(size=n) 
summary(muestra$Precio) #distribución del precio en la muestra

##    Min. 1st Qu.  Median    Mean 3rd Qu.    Max. 
##   0.979   1.319   1.339   1.331   1.369   1.425

#### Muestreo estratificado (proporcional) ####
muestra <- gasolineras %>% group_by(Provincia) %>% sample_frac(.1) # 1% en cada provincia  
muestra %>% summarise(media=mean(Precio),n = n())

## # A tibble: 51 x 3
##    Provincia       media     n
##    <chr>           <dbl> <int>
##  1 ÁLAVA            1.36     4
##  2 ALBACETE         1.31     9
##  3 ALICANTE         1.34    29
##  4 ALMERÍA          1.34    10
##  5 ASTURIAS         1.37    14
##  6 ÁVILA            1.34     4
##  7 BADAJOZ          1.33     9
##  8 BALEARS (ILLES)  1.39    15
##  9 BARCELONA        1.36    54
## 10 BURGOS           1.34     8
## # ... with 41 more rows
…
